Tidytext Tutorial
…
After we successfully convert our data set into a tibble data frame, we want to extract individual words and put them into a data frame so that each row has one token.

Each token can be interpreted as a word or unit of text. By utilizing tidytext’s unnest_tokens function, we can break the text into individual tokens. This process is also known as the tokenization process. Note that this function eliminates all the punctuation marks.

# Tokenization process
text_unnest <- text_df %>% 
  unnest_tokens(word, text)

# Tokenized data 
text_unnest

# A tibble: 32 x 2
    line word    
   <int> <chr>   
 1     1 lisa    
 2     1 is      
 3     1 awesome 
 4     2 i       
 5     2 love    
 6     2 data    
 7     2 science 
 8     3 i       
 9     3 hate    
10     3 cilantro
# … with 22 more rows
…
